uploads/7b1076373e2636a8ab090521911f90b6/sim/tb_single_cycle_mips.vcd
$date
	Sun May 17 15:21:13 2020
$end
$version
	Icarus Verilog
$end
$timescale
	1ps
$end
$scope module tb_single_cycle_mips $end
$var wire 32 ! proc_data_out [31:0] $end
$var wire 32 " proc_data_in [31:0] $end
$var wire 1 # mem_write $end
$var wire 1 $ mem_read $end
$var wire 6 % inst_opcode [5:0] $end
$var wire 6 & inst_funct [5:0] $end
$var wire 32 ' inst_addr [31:0] $end
$var wire 32 ( inst [31:0] $end
$var wire 32 ) data_addr [31:0] $end
$var reg 1 * clk $end
$var reg 32 + datamem_out [31:0] $end
$var reg 32 , datamem_out_ans [31:0] $end
$var reg 1 - done $end
$var reg 1 . nrst $end
$var integer 32 / add_test_pass [31:0] $end
$var integer 32 0 addi_test_pass [31:0] $end
$var integer 32 1 beq_test_pass [31:0] $end
$var integer 32 2 bne_test_pass [31:0] $end
$var integer 32 3 has_error [31:0] $end
$var integer 32 4 i [31:0] $end
$var integer 32 5 j_test_pass [31:0] $end
$var integer 32 6 jal_test_pass [31:0] $end
$var integer 32 7 jr_test_pass [31:0] $end
$var integer 32 8 lw_sw_test_pass [31:0] $end
$var integer 32 9 ra_test_pass [31:0] $end
$var integer 32 : sll_test_pass [31:0] $end
$var integer 32 ; slt_test_pass [31:0] $end
$var integer 32 < slti_test_pass [31:0] $end
$var integer 32 = srl_test_pass [31:0] $end
$var integer 32 > sub_test_pass [31:0] $end
$scope module D1 $end
$var wire 1 * clk $end
$var wire 1 # mem_write $end
$var wire 1 $ mem_read $end
$var wire 32 ? data_in [31:0] $end
$var wire 32 @ data_addr [31:0] $end
$var reg 32 A data_out [31:0] $end
$upscope $end
$scope module D2 $end
$upscope $end
$scope module I1 $end
$var wire 32 B inst_addr [31:0] $end
$var reg 32 C inst [31:0] $end
$upscope $end
$scope module UUT $end
$var wire 1 * clk $end
$var wire 32 D data_in [31:0] $end
$var wire 32 E inst [31:0] $end
$var wire 1 . nrst $end
$var wire 1 F srl $end
$var wire 1 G sll $end
$var wire 1 H reg_write $end
$var wire 1 I reg_dst $end
$var wire 1 J pc_src $end
$var wire 1 # mem_write $end
$var wire 1 K mem_to_reg $end
$var wire 1 $ mem_read $end
$var wire 1 L jump $end
$var wire 1 M jr $end
$var wire 1 N jal $end
$var wire 32 O inst_addr [31:0] $end
$var wire 32 P data_out [31:0] $end
$var wire 32 Q data_addr [31:0] $end
$var wire 4 R alusel [3:0] $end
$var wire 1 S alu_zero $end
$var wire 1 T alu_src $end
$scope module U1 $end
$var wire 1 * clk $end
$var wire 32 U data_addr [31:0] $end
$var wire 32 V inst [31:0] $end
$var wire 32 W mem_data_in [31:0] $end
$var wire 32 X mem_data_out [31:0] $end
$var wire 1 . nrst $end
$var wire 5 Y rd_addrA [4:0] $end
$var wire 5 Z rd_addrB [4:0] $end
$var wire 1 F srl $end
$var wire 1 G sll $end
$var wire 1 H reg_write $end
$var wire 1 I reg_dst $end
$var wire 32 [ rd_dataB [31:0] $end
$var wire 32 \ rd_dataA [31:0] $end
$var wire 1 J pc_src $end
$var wire 32 ] opB [31:0] $end
$var wire 32 ^ opA [31:0] $end
$var wire 1 K mem_to_reg $end
$var wire 1 L jump $end
$var wire 1 M jr $end
$var wire 1 N jal $end
$var wire 5 _ inst_shamt [4:0] $end
$var wire 5 ` inst_rt [4:0] $end
$var wire 5 a inst_rs [4:0] $end
$var wire 5 b inst_rd [4:0] $end
$var wire 16 c inst_jump_target_addr [15:0] $end
$var wire 32 d inst_imm_sign_extended [31:0] $end
$var wire 16 e inst_imm [15:0] $end
$var wire 32 f inst_addr_plus_4 [31:0] $end
$var wire 4 g alusel [3:0] $end
$var wire 1 S alu_zero $end
$var wire 1 T alu_src $end
$var wire 32 h alu_res [31:0] $end
$var reg 32 i inst_addr [31:0] $end
$var reg 32 j next_inst_addr [31:0] $end
$var reg 5 k wr_addr [4:0] $end
$var reg 32 l wr_data [31:0] $end
$scope module U1 $end
$var wire 1 * clk $end
$var wire 1 . nrst $end
$var wire 5 m rd_addrA [4:0] $end
$var wire 5 n rd_addrB [4:0] $end
$var wire 32 o rd_dataA [31:0] $end
$var wire 32 p rd_dataB [31:0] $end
$var wire 32 q reg0 [31:0] $end
$var wire 32 r reg1 [31:0] $end
$var wire 32 s reg10 [31:0] $end
$var wire 32 t reg11 [31:0] $end
$var wire 32 u reg12 [31:0] $end
$var wire 32 v reg13 [31:0] $end
$var wire 32 w reg14 [31:0] $end
$var wire 32 x reg15 [31:0] $end
$var wire 32 y reg16 [31:0] $end
$var wire 32 z reg17 [31:0] $end
$var wire 32 { reg18 [31:0] $end
$var wire 32 | reg19 [31:0] $end
$var wire 32 } reg2 [31:0] $end
$var wire 32 ~ reg20 [31:0] $end
$var wire 32 !" reg21 [31:0] $end
$var wire 32 "" reg22 [31:0] $end
$var wire 32 #" reg23 [31:0] $end
$var wire 32 $" reg24 [31:0] $end
$var wire 32 %" reg25 [31:0] $end
$var wire 32 &" reg26 [31:0] $end
$var wire 32 '" reg27 [31:0] $end
$var wire 32 (" reg28 [31:0] $end
$var wire 32 )" reg29 [31:0] $end
$var wire 32 *" reg3 [31:0] $end
$var wire 32 +" reg30 [31:0] $end
$var wire 32 ," reg31 [31:0] $end
$var wire 32 -" reg4 [31:0] $end
$var wire 32 ." reg5 [31:0] $end
$var wire 32 /" reg6 [31:0] $end
$var wire 32 0" reg7 [31:0] $end
$var wire 32 1" reg8 [31:0] $end
$var wire 32 2" reg9 [31:0] $end
$var wire 5 3" wr_addr [4:0] $end
$var wire 32 4" wr_data [31:0] $end
$var wire 1 H wr_en $end
$upscope $end
$scope module U2 $end
$var wire 32 5" opA [31:0] $end
$var wire 32 6" opB [31:0] $end
$var wire 1 7" sign_opB $end
$var wire 1 8" sign_opA $end
$var wire 32 9" mag_opB [31:0] $end
$var wire 32 :" mag_opA [31:0] $end
$var wire 4 ;" alusel [3:0] $end
$var wire 1 S alu_zero $end
$var reg 32 <" alu_res [31:0] $end
$upscope $end
$upscope $end
$scope module U2 $end
$var wire 1 S alu_zero $end
$var wire 1 * clk $end
$var wire 32 =" inst [31:0] $end
$var wire 1 . nrst $end
$var wire 5 >" inst_shamt [4:0] $end
$var wire 5 ?" inst_rt [4:0] $end
$var wire 5 @" inst_rs [4:0] $end
$var wire 5 A" inst_rd [4:0] $end
$var wire 6 B" inst_opcode [5:0] $end
$var wire 16 C" inst_imm [15:0] $end
$var wire 6 D" inst_funct [5:0] $end
$var reg 1 T alu_src $end
$var reg 4 E" alusel [3:0] $end
$var reg 1 N jal $end
$var reg 1 M jr $end
$var reg 1 L jump $end
$var reg 1 $ mem_read $end
$var reg 1 K mem_to_reg $end
$var reg 1 # mem_write $end
$var reg 1 J pc_src $end
$var reg 1 I reg_dst $end
$var reg 1 H reg_write $end
$var reg 1 G sll $end
$var reg 1 F srl $end
$upscope $end
$upscope $end
$scope task displayResult $end
$var reg 41 F" instruction [40:0] $end
$var reg 41 G" test_len [40:0] $end
$var reg 41 H" test_passed [40:0] $end
$upscope $end
$upscope $end
$enddefinitions $end
#0
$dumpvars
bx H"
bx G"
bx F"
b1 E"
b10000 D"
b1111010000 C"
b100011 B"
b0 A"
b0 @"
b0 ?"
b1111 >"
b10001100000000000000001111010000 ="
b1111010000 <"
b1 ;"
b0 :"
b1111010000 9"
08"
07"
b1111010000 6"
b0 5"
b10101101111000011011000001010101 4"
b0 3"
b0 2"
b0 1"
b0 0"
b0 /"
b0 ."
b0 -"
b0 ,"
b0 +"
b0 *"
b0 )"
b0 ("
b0 '"
b0 &"
b0 %"
b0 $"
b0 #"
b0 ""
b0 !"
b0 ~
b0 }
b0 |
b0 {
b0 z
b0 y
b0 x
b0 w
b0 v
b0 u
b0 t
b0 s
b0 r
b0 q
b0 p
b0 o
b0 n
b0 m
b10101101111000011011000001010101 l
b0 k
b100 j
b0 i
b1111010000 h
b1 g
b100 f
b1111010000 e
b1111010000 d
b1111010000 c
b0 b
b0 a
b0 `
b1111 _
b0 ^
b1111010000 ]
b0 \
b0 [
b0 Z
b0 Y
b0 X
b10101101111000011011000001010101 W
b10001100000000000000001111010000 V
b1111010000 U
1T
0S
b1 R
b1111010000 Q
b0 P
b0 O
0N
0M
0L
1K
0J
0I
1H
0G
0F
b10001100000000000000001111010000 E
b10101101111000011011000001010101 D
b10001100000000000000001111010000 C
b0 B
b10101101111000011011000001010101 A
b1111010000 @
b0 ?
b0 >
b0 =
b0 <
b0 ;
b0 :
b0 9
b0 8
b0 7
b0 6
b0 5
b0 4
b0 3
b0 2
b0 1
b0 0
b0 /
0.
0-
bx ,
bx +
0*
b1111010000 )
b10001100000000000000001111010000 (
b0 '
b10000 &
b100011 %
1$
0#
b10101101111000011011000001010101 "
b0 !
$end
#7000
1.
#25000
b10010001101000001001000110100 l
b10010001101000001001000110100 4"
b10010001101000001001000110100 "
b10010001101000001001000110100 A
b10010001101000001001000110100 D
b10010001101000001001000110100 W
b1111001100 )
b1111001100 @
b1111001100 Q
b1111001100 U
b1111001100 h
b1111001100 <"
b1 k
b1 3"
b1111001100 9"
b1111001100 ]
b1111001100 6"
b1111001100 c
b1 Z
b1 n
b1 `
b1111001100 e
b1111001100 d
b1 ?"
b1100 D"
b1111001100 C"
b1100 &
b1000 j
b10001100000000010000001111001100 (
b10001100000000010000001111001100 C
b10001100000000010000001111001100 E
b10001100000000010000001111001100 V
b10001100000000010000001111001100 ="
b1000 f
b100 '
b100 B
b100 O
b100 i
1*
#50000
0*
#75000
b10101101111000011011000001010101 l
b10101101111000011011000001010101 4"
b10101101111000011011000001010101 "
b10101101111000011011000001010101 A
b10101101111000011011000001010101 D
b10101101111000011011000001010101 W
b1111010000 )
b1111010000 @
b1111010000 Q
b1111010000 U
b1111010000 h
b1111010000 <"
b10 k
b10 3"
b1111010000 9"
b1111010000 ]
b1111010000 6"
b1111010000 c
b10 Z
b10 n
b10 `
b1111010000 e
b1111010000 d
b10 ?"
b10000 D"
b1111010000 C"
b10000 &
b1100 j
b10001100000000100000001111010000 (
b10001100000000100000001111010000 C
b10001100000000100000001111010000 E
b10001100000000100000001111010000 V
b10001100000000100000001111010000 ="
b0 !
b0 ?
b0 P
b0 X
b0 [
b0 p
b10010001101000001001000110100 r
b1100 f
b1000 '
b1000 B
b1000 O
b1000 i
1*
#100000
0*
#125000
b10010001101000001001000110100 l
b10010001101000001001000110100 4"
b10010001101000001001000110100 "
b10010001101000001001000110100 A
b10010001101000001001000110100 D
b10010001101000001001000110100 W
b1111001100 )
b1111001100 @
b1111001100 Q
b1111001100 U
b1111001100 h
b1111001100 <"
b11 k
b11 3"
b1111001100 9"
b1111001100 ]
b1111001100 6"
b1111001100 c
b11 Z
b11 n
b11 `
b1111001100 e
b1111001100 d
b11 ?"
b1100 D"
b1111001100 C"
b1100 &
b10000 j
b10001100000000110000001111001100 (
b10001100000000110000001111001100 C
b10001100000000110000001111001100 E
b10001100000000110000001111001100 V
b10001100000000110000001111001100 ="
b10000 f
b1100 '
b1100 B
b1100 O
b1100 i
b0 !
b0 ?
b0 P
b0 X
b0 [
b0 p
b10101101111000011011000001010101 }
1*
#150000
0*
#175000
b10101101111000011011000001010101 l
b10101101111000011011000001010101 4"
b10101101111000011011000001010101 "
b10101101111000011011000001010101 A
b10101101111000011011000001010101 D
b10101101111000011011000001010101 W
b1111010000 )
b1111010000 @
b1111010000 Q
b1111010000 U
b1111010000 h
b1111010000 <"
b100 k
b100 3"
b1111010000 9"
b1111010000 ]
b1111010000 6"
b1111010000 c
b100 Z
b100 n
b100 `
b1111010000 e
b1111010000 d
b100 ?"
b10000 D"
b1111010000 C"
b10000 &
b10100 j
b10001100000001000000001111010000 (
b10001100000001000000001111010000 C
b10001100000001000000001111010000 E
b10001100000001000000001111010000 V
b10001100000001000000001111010000 ="
b0 !
b0 ?
b0 P
b0 X
b0 [
b0 p
b10010001101000001001000110100 *"
b10100 f
b10000 '
b10000 B
b10000 O
b10000 i
1*
#200000
0*
#225000
b10010001101000001001000110100 l
b10010001101000001001000110100 4"
b10010001101000001001000110100 "
b10010001101000001001000110100 A
b10010001101000001001000110100 D
b10010001101000001001000110100 W
b1111001100 )
b1111001100 @
b1111001100 Q
b1111001100 U
b1111001100 h
b1111001100 <"
b101 k
b101 3"
b1111001100 9"
b1111001100 ]
b1111001100 6"
b1111001100 c
b101 Z
b101 n
b101 `
b1111001100 e
b1111001100 d
b101 ?"
b1100 D"
b1111001100 C"
b1100 &
b11000 j
b10001100000001010000001111001100 (
b10001100000001010000001111001100 C
b10001100000001010000001111001100 E
b10001100000001010000001111001100 V
b10001100000001010000001111001100 ="
b11000 f
b10100 '
b10100 B
b10100 O
b10100 i
b0 !
b0 ?
b0 P
b0 X
b0 [
b0 p
b10101101111000011011000001010101 -"
1*
#250000
0*
#275000
b10101101111000011011000001010101 l
b10101101111000011011000001010101 4"
b10101101111000011011000001010101 "
b10101101111000011011000001010101 A
b10101101111000011011000001010101 D
b10101101111000011011000001010101 W
b1111010000 )
b1111010000 @
b1111010000 Q
b1111010000 U
b1111010000 h
b1111010000 <"
b110 k
b110 3"
b1111010000 9"
b1111010000 ]
b1111010000 6"
b1111010000 c
b110 Z
b110 n
b110 `
b1111010000 e
b1111010000 d
b110 ?"
b10000 D"
b1111010000 C"
b10000 &
b11100 j
b10001100000001100000001111010000 (
b10001100000001100000001111010000 C
b10001100000001100000001111010000 E
b10001100000001100000001111010000 V
b10001100000001100000001111010000 ="
b0 !
b0 ?
b0 P
b0 X
b0 [
b0 p
b10010001101000001001000110100 ."
b11100 f
b11000 '
b11000 B
b11000 O
b11000 i
1*
#300000
0*
#325000
b10010001101000001001000110100 l
b10010001101000001001000110100 4"
b10010001101000001001000110100 "
b10010001101000001001000110100 A
b10010001101000001001000110100 D
b10010001101000001001000110100 W
b1111001100 )
b1111001100 @
b1111001100 Q
b1111001100 U
b1111001100 h
b1111001100 <"
b111 k
b111 3"
b1111001100 9"
b1111001100 ]
b1111001100 6"
b1111001100 c
b111 Z
b111 n
b111 `
b1111001100 e
b1111001100 d
b111 ?"
b1100 D"
b1111001100 C"
b1100 &
b100000 j
b10001100000001110000001111001100 (
b10001100000001110000001111001100 C
b10001100000001110000001111001100 E
b10001100000001110000001111001100 V
b10001100000001110000001111001100 ="
b100000 f
b11100 '
b11100 B
b11100 O
b11100 i
b0 !
b0 ?
b0 P
b0 X
b0 [
b0 p
b10101101111000011011000001010101 /"
1*
#350000
0*
#375000
b10101101111000011011000001010101 l
b10101101111000011011000001010101 4"
b10101101111000011011000001010101 "
b10101101111000011011000001010101 A
b10101101111000011011000001010101 D
b10101101111000011011000001010101 W
b1111010000 )
b1111010000 @
b1111010000 Q
b1111010000 U
b1111010000 h
b1111010000 <"
b1000 k
b1000 3"
b1111010000 9"
b1111010000 ]
b1111010000 6"
b1111010000 c
b1000 Z
b1000 n
b1000 `
b1111010000 e
b1111010000 d
b1000 ?"
b10000 D"
b1111010000 C"
b10000 &
b100100 j
b10001100000010000000001111010000 (
b10001100000010000000001111010000 C
b10001100000010000000001111010000 E
b10001100000010000000001111010000 V
b10001100000010000000001111010000 ="
b0 !
b0 ?
b0 P
b0 X
b0 [
b0 p
b10010001101000001001000110100 0"
b100100 f
b100000 '
b100000 B
b100000 O
b100000 i
1*
#400000
0*
#425000
b10010001101000001001000110100 l
b10010001101000001001000110100 4"
b10010001101000001001000110100 "
b10010001101000001001000110100 A
b10010001101000001001000110100 D
b10010001101000001001000110100 W
b1111001100 )
b1111001100 @
b1111001100 Q
b1111001100 U
b1111001100 h
b1111001100 <"
b1001 k
b1001 3"
b1111001100 9"
b1111001100 ]
b1111001100 6"
b1111001100 c
b1001 Z
b1001 n
b1001 `
b1111001100 e
b1111001100 d
b1001 ?"
b1100 D"
b1111001100 C"
b1100 &
b101000 j
b10001100000010010000001111001100 (
b10001100000010010000001111001100 C
b10001100000010010000001111001100 E
b10001100000010010000001111001100 V
b10001100000010010000001111001100 ="
b101000 f
b100100 '
b100100 B
b100100 O
b100100 i
b0 !
b0 ?
b0 P
b0 X
b0 [
b0 p
b10101101111000011011000001010101 1"
1*
#450000
0*
#475000
b10101101111000011011000001010101 l
b10101101111000011011000001010101 4"
b10101101111000011011000001010101 "
b10101101111000011011000001010101 A
b10101101111000011011000001010101 D
b10101101111000011011000001010101 W
b1111010000 )
b1111010000 @
b1111010000 Q
b1111010000 U
b1111010000 h
b1111010000 <"
b1010 k
b1010 3"
b1111010000 9"
b1111010000 ]
b1111010000 6"
b1111010000 c
b1010 Z
b1010 n
b1010 `
b1111010000 e
b1111010000 d
b1010 ?"
b10000 D"
b1111010000 C"
b10000 &
b101100 j
b10001100000010100000001111010000 (
b10001100000010100000001111010000 C
b10001100000010100000001111010000 E
b10001100000010100000001111010000 V
b10001100000010100000001111010000 ="
b0 !
b0 ?
b0 P
b0 X
b0 [
b0 p
b10010001101000001001000110100 2"
b101100 f
b101000 '
b101000 B
b101000 O
b101000 i
1*
#500000
0*
#525000
b10010001101000001001000110100 l
b10010001101000001001000110100 4"
b10010001101000001001000110100 "
b10010001101000001001000110100 A
b10010001101000001001000110100 D
b10010001101000001001000110100 W
b1111001100 )
b1111001100 @
b1111001100 Q
b1111001100 U
b1111001100 h
b1111001100 <"
b1011 k
b1011 3"
b1111001100 9"
b1111001100 ]
b1111001100 6"
b1111001100 c
b1011 Z
b1011 n
b1011 `
b1111001100 e
b1111001100 d
b1011 ?"
b1100 D"
b1111001100 C"
b1100 &
b110000 j
b10001100000010110000001111001100 (
b10001100000010110000001111001100 C
b10001100000010110000001111001100 E
b10001100000010110000001111001100 V
b10001100000010110000001111001100 ="
b110000 f
b101100 '
b101100 B
b101100 O
b101100 i
b0 !
b0 ?
b0 P
b0 X
b0 [
b0 p
b10101101111000011011000001010101 s
1*
#550000
0*
#575000
b10101101111000011011000001010101 l
b10101101111000011011000001010101 4"
b10101101111000011011000001010101 "
b10101101111000011011000001010101 A
b10101101111000011011000001010101 D
b10101101111000011011000001010101 W
b1111010000 )
b1111010000 @
b1111010000 Q
b1111010000 U
b1111010000 h
b1111010000 <"
b1100 k
b1100 3"
b1111010000 9"
b1111010000 ]
b1111010000 6"
b1111010000 c
b1100 Z
b1100 n
b1100 `
b1111010000 e
b1111010000 d
b1100 ?"
b10000 D"
b1111010000 C"
b10000 &
b110100 j
b10001100000011000000001111010000 (
b10001100000011000000001111010000 C
b10001100000011000000001111010000 E
b10001100000011000000001111010000 V
b10001100000011000000001111010000 ="
b0 !
b0 ?
b0 P
b0 X
b0 [
b0 p
b10010001101000001001000110100 t
b110100 f
b110000 '
b110000 B
b110000 O
b110000 i
1*
#600000
0*
#625000
b10010001101000001001000110100 l
b10010001101000001001000110100 4"
b10010001101000001001000110100 "
b10010001101000001001000110100 A
b10010001101000001001000110100 D
b10010001101000001001000110100 W
b1111001100 )
b1111001100 @
b1111001100 Q
b1111001100 U
b1111001100 h
b1111001100 <"
b1101 k
b1101 3"
b1111001100 9"
b1111001100 ]
b1111001100 6"
b1111001100 c
b1101 Z
b1101 n
b1101 `
b1111001100 e
b1111001100 d
b1101 ?"
b1100 D"
b1111001100 C"
b1100 &
b111000 j
b10001100000011010000001111001100 (
b10001100000011010000001111001100 C
b10001100000011010000001111001100 E
b10001100000011010000001111001100 V
b10001100000011010000001111001100 ="
b111000 f
b110100 '
b110100 B
b110100 O
b110100 i
b0 !
b0 ?
b0 P
b0 X
b0 [
b0 p
b10101101111000011011000001010101 u
1*
#650000
0*
#675000
b10101101111000011011000001010101 l
b10101101111000011011000001010101 4"
b10101101111000011011000001010101 "
b10101101111000011011000001010101 A
b10101101111000011011000001010101 D
b10101101111000011011000001010101 W
b1111010000 )
b1111010000 @
b1111010000 Q
b1111010000 U
b1111010000 h
b1111010000 <"
b1110 k
b1110 3"
b1111010000 9"
b1111010000 ]
b1111010000 6"
b1111010000 c
b1110 Z
b1110 n
b1110 `
b1111010000 e
b1111010000 d
b1110 ?"
b10000 D"
b1111010000 C"
b10000 &
b111100 j
b10001100000011100000001111010000 (
b10001100000011100000001111010000 C
b10001100000011100000001111010000 E
b10001100000011100000001111010000 V
b10001100000011100000001111010000 ="
b0 !
b0 ?
b0 P
b0 X
b0 [
b0 p
b10010001101000001001000110100 v
b111100 f
b111000 '
b111000 B
b111000 O
b111000 i
1*
#700000
0*
#725000
b10010001101000001001000110100 l
b10010001101000001001000110100 4"
b10010001101000001001000110100 "
b10010001101000001001000110100 A
b10010001101000001001000110100 D
b10010001101000001001000110100 W
b1111001100 )
b1111001100 @
b1111001100 Q
b1111001100 U
b1111001100 h
b1111001100 <"
b1111 k
b1111 3"
b1111001100 9"
b1111001100 ]
b1111001100 6"
b1111001100 c
b1111 Z
b1111 n
b1111 `
b1111001100 e
b1111001100 d
b1111 ?"
b1100 D"
b1111001100 C"
b1100 &
b1000000 j
b10001100000011110000001111001100 (
b10001100000011110000001111001100 C
b10001100000011110000001111001100 E
b10001100000011110000001111001100 V
b10001100000011110000001111001100 ="
b1000000 f
b111100 '
b111100 B
b111100 O
b111100 i
b0 !
b0 ?
b0 P
b0 X
b0 [
b0 p
b10101101111000011011000001010101 w
1*
#750000
0*
#775000
b10101101111000011011000001010101 l
b10101101111000011011000001010101 4"
b10101101111000011011000001010101 "
b10101101111000011011000001010101 A
b10101101111000011011000001010101 D
b10101101111000011011000001010101 W
b1111010000 )
b1111010000 @
b1111010000 Q
b1111010000 U
b1111010000 h
b1111010000 <"
b10000 k
b10000 3"
b1111010000 9"
b1111010000 ]
b1111010000 6"
b1111010000 c
b10000 Z
b10000 n
b10000 `
b1111010000 e
b1111010000 d
b10000 ?"
b10000 D"
b1111010000 C"
b10000 &
b1000100 j
b10001100000100000000001111010000 (
b10001100000100000000001111010000 C
b10001100000100000000001111010000 E
b10001100000100000000001111010000 V
b10001100000100000000001111010000 ="
b0 !
b0 ?
b0 P
b0 X
b0 [
b0 p
b10010001101000001001000110100 x
b1000100 f
b1000000 '
b1000000 B
b1000000 O
b1000000 i
1*
#800000
0*
#825000
b10010001101000001001000110100 l
b10010001101000001001000110100 4"
b10010001101000001001000110100 "
b10010001101000001001000110100 A
b10010001101000001001000110100 D
b10010001101000001001000110100 W
b1111001100 )
b1111001100 @
b1111001100 Q
b1111001100 U
b1111001100 h
b1111001100 <"
b10001 k
b10001 3"
b1111001100 9"
b1111001100 ]
b1111001100 6"
b1111001100 c
b10001 Z
b10001 n
b10001 `
b1111001100 e
b1111001100 d
b10001 ?"
b1100 D"
b1111001100 C"
b1100 &
b1001000 j
b10001100000100010000001111001100 (
b10001100000100010000001111001100 C
b10001100000100010000001111001100 E
b10001100000100010000001111001100 V
b10001100000100010000001111001100 ="
b1001000 f
b1000100 '
b1000100 B
b1000100 O
b1000100 i
b0 !
b0 ?
b0 P
b0 X
b0 [
b0 p
b10101101111000011011000001010101 y
1*
#850000
0*
#875000
b10101101111000011011000001010101 l
b10101101111000011011000001010101 4"
b10101101111000011011000001010101 "
b10101101111000011011000001010101 A
b10101101111000011011000001010101 D
b10101101111000011011000001010101 W
b1111010000 )
b1111010000 @
b1111010000 Q
b1111010000 U
b1111010000 h
b1111010000 <"
b10010 k
b10010 3"
b1111010000 9"
b1111010000 ]
b1111010000 6"
b1111010000 c
b10010 Z
b10010 n
b10010 `
b1111010000 e
b1111010000 d
b10010 ?"
b10000 D"
b1111010000 C"
b10000 &
b1001100 j
b10001100000100100000001111010000 (
b10001100000100100000001111010000 C
b10001100000100100000001111010000 E
b10001100000100100000001111010000 V
b10001100000100100000001111010000 ="
b0 !
b0 ?
b0 P
b0 X
b0 [
b0 p
b10010001101000001001000110100 z
b1001100 f
b1001000 '
b1001000 B
b1001000 O
b1001000 i
1*
#900000
0*
#925000
b10010001101000001001000110100 l
b10010001101000001001000110100 4"
b10010001101000001001000110100 "
b10010001101000001001000110100 A
b10010001101000001001000110100 D
b10010001101000001001000110100 W
b1111001100 )
b1111001100 @
b1111001100 Q
b1111001100 U
b1111001100 h
b1111001100 <"
b10011 k
b10011 3"
b1111001100 9"
b1111001100 ]
b1111001100 6"
b1111001100 c
b10011 Z
b10011 n
b10011 `
b1111001100 e
b1111001100 d
b10011 ?"
b1100 D"
b1111001100 C"
b1100 &
b1010000 j
b10001100000100110000001111001100 (
b10001100000100110000001111001100 C
b10001100000100110000001111001100 E
b10001100000100110000001111001100 V
b10001100000100110000001111001100 ="
b1010000 f
b1001100 '
b1001100 B
b1001100 O
b1001100 i
b0 !
b0 ?
b0 P
b0 X
b0 [
b0 p
b10101101111000011011000001010101 {
1*
#950000
0*
#975000
b10101101111000011011000001010101 l
b10101101111000011011000001010101 4"
b10101101111000011011000001010101 "
b10101101111000011011000001010101 A
b10101101111000011011000001010101 D
b10101101111000011011000001010101 W
b1111010000 )
b1111010000 @
b1111010000 Q
b1111010000 U
b1111010000 h
b1111010000 <"
b10100 k
b10100 3"
b1111010000 9"
b1111010000 ]
b1111010000 6"
b1111010000 c
b10100 Z
b10100 n
b10100 `
b1111010000 e
b1111010000 d
b10100 ?"
b10000 D"
b1111010000 C"
b10000 &
b1010100 j
b10001100000101000000001111010000 (
b10001100000101000000001111010000 C
b10001100000101000000001111010000 E
b10001100000101000000001111010000 V
b10001100000101000000001111010000 ="
b0 !
b0 ?
b0 P
b0 X
b0 [
b0 p
b10010001101000001001000110100 |
b1010100 f
b1010000 '
b1010000 B
b1010000 O
b1010000 i
1*
#1000000
0*
#1025000
b10010001101000001001000110100 l
b10010001101000001001000110100 4"
b10010001101000001001000110100 "
b10010001101000001001000110100 A
b10010001101000001001000110100 D
b10010001101000001001000110100 W
b1111001100 )
b1111001100 @
b1111001100 Q
b1111001100 U
b1111001100 h
b1111001100 <"
b10101 k
b10101 3"
b1111001100 9"
b1111001100 ]
b1111001100 6"
b1111001100 c
b10101 Z
b10101 n
b10101 `
b1111001100 e
b1111001100 d
b10101 ?"
b1100 D"
b1111001100 C"
b1100 &
b1011000 j
b10001100000101010000001111001100 (
b10001100000101010000001111001100 C
b10001100000101010000001111001100 E
b10001100000101010000001111001100 V
b10001100000101010000001111001100 ="
b1011000 f
b1010100 '
b1010100 B
b1010100 O
b1010100 i
b0 !
b0 ?
b0 P
b0 X
b0 [
b0 p
b10101101111000011011000001010101 ~
1*
#1050000
0*
#1075000
b10101101111000011011000001010101 l
b10101101111000011011000001010101 4"
b10101101111000011011000001010101 "
b10101101111000011011000001010101 A
b10101101111000011011000001010101 D
b10101101111000011011000001010101 W
b1111010000 )
b1111010000 @
b1111010000 Q
b1111010000 U
b1111010000 h
b1111010000 <"
b10110 k
b10110 3"
b1111010000 9"
b1111010000 ]
b1111010000 6"
b1111010000 c
b10110 Z
b10110 n
b10110 `
b1111010000 e
b1111010000 d
b10110 ?"
b10000 D"
b1111010000 C"
b10000 &
b1011100 j
b10001100000101100000001111010000 (
b10001100000101100000001111010000 C
b10001100000101100000001111010000 E
b10001100000101100000001111010000 V
b10001100000101100000001111010000 ="
b0 !
b0 ?
b0 P
b0 X
b0 [
b0 p
b10010001101000001001000110100 !"
b1011100 f
b1011000 '
b1011000 B
b1011000 O
b1011000 i
1*
#1100000
0*
#1125000
b10010001101000001001000110100 l
b10010001101000001001000110100 4"
b10010001101000001001000110100 "
b10010001101000001001000110100 A
b10010001101000001001000110100 D
b10010001101000001001000110100 W
b1111001100 )
b1111001100 @
b1111001100 Q
b1111001100 U
b1111001100 h
b1111001100 <"
b10111 k
b10111 3"
b1111001100 9"
b1111001100 ]
b1111001100 6"
b1111001100 c
b10111 Z
b10111 n
b10111 `
b1111001100 e
b1111001100 d
b10111 ?"
b1100 D"
b1111001100 C"
b1100 &
b1100000 j
b10001100000101110000001111001100 (
b10001100000101110000001111001100 C
b10001100000101110000001111001100 E
b10001100000101110000001111001100 V
b10001100000101110000001111001100 ="
b1100000 f
b1011100 '
b1011100 B
b1011100 O
b1011100 i
b0 !
b0 ?
b0 P
b0 X
b0 [
b0 p
b10101101111000011011000001010101 ""
1*
#1150000
0*
#1175000
b10101101111000011011000001010101 l
b10101101111000011011000001010101 4"
b10101101111000011011000001010101 "
b10101101111000011011000001010101 A
b10101101111000011011000001010101 D
b10101101111000011011000001010101 W
b1111010000 )
b1111010000 @
b1111010000 Q
b1111010000 U
b1111010000 h
b1111010000 <"
b11000 k
b11000 3"
b1111010000 9"
b1111010000 ]
b1111010000 6"
b1111010000 c
b11000 Z
b11000 n
b11000 `
b1111010000 e
b1111010000 d
b11000 ?"
b10000 D"
b1111010000 C"
b10000 &
b1100100 j
b10001100000110000000001111010000 (
b10001100000110000000001111010000 C
b10001100000110000000001111010000 E
b10001100000110000000001111010000 V
b10001100000110000000001111010000 ="
b0 !
b0 ?
b0 P
b0 X
b0 [
b0 p
b10010001101000001001000110100 #"
b1100100 f
b1100000 '
b1100000 B
b1100000 O
b1100000 i
1*
#1200000
0*
#1225000
b10010001101000001001000110100 l
b10010001101000001001000110100 4"
b10010001101000001001000110100 "
b10010001101000001001000110100 A
b10010001101000001001000110100 D
b10010001101000001001000110100 W
b1111001100 )
b1111001100 @
b1111001100 Q
b1111001100 U
b1111001100 h
b1111001100 <"
b11001 k
b11001 3"
b1111001100 9"
b1111001100 ]
b1111001100 6"
b1111001100 c
b11001 Z
b11001 n
b11001 `
b1111001100 e
b1111001100 d
b11001 ?"
b1100 D"
b1111001100 C"
b1100 &
b1101000 j
b10001100000110010000001111001100 (
b10001100000110010000001111001100 C
b10001100000110010000001111001100 E
b10001100000110010000001111001100 V
b10001100000110010000001111001100 ="
b1101000 f
b1100100 '
b1100100 B
b1100100 O
b1100100 i
b0 !
b0 ?
b0 P
b0 X
b0 [
b0 p
b10101101111000011011000001010101 $"
1*
#1250000
0*
